\relax 
\providecommand\hyper@newdestlabel[2]{}
\providecommand\HyperFirstAtBeginDocument{\AtBeginDocument}
\HyperFirstAtBeginDocument{\ifx\hyper@anchor\@undefined
\global\let\oldcontentsline\contentsline
\gdef\contentsline#1#2#3#4{\oldcontentsline{#1}{#2}{#3}}
\global\let\oldnewlabel\newlabel
\gdef\newlabel#1#2{\newlabelxx{#1}#2}
\gdef\newlabelxx#1#2#3#4#5#6{\oldnewlabel{#1}{{#2}{#3}}}
\AtEndDocument{\ifx\hyper@anchor\@undefined
\let\contentsline\oldcontentsline
\let\newlabel\oldnewlabel
\fi}
\fi}
\global\let\hyper@last\relax 
\gdef\HyperFirstAtBeginDocument#1{#1}
\providecommand\HyField@AuxAddToFields[1]{}
\providecommand\HyField@AuxAddToCoFields[2]{}
\catcode `:\active 
\catcode `;\active 
\catcode `!\active 
\catcode `?\active 
\babel@aux{french}{}
\@writefile{toc}{\contentsline {section}{\numberline {1}The first section}{1}{section.1}}
\newlabel{the-first-section}{{1}{1}{The first section}{section.1}{}}
\@writefile{toc}{\contentsline {subsection}{\numberline {1.1}The origins}{1}{subsection.1.1}}
\newlabel{the-origins}{{1.1}{1}{The origins}{subsection.1.1}{}}
\@writefile{toc}{\contentsline {subsection}{\numberline {1.2}Then}{1}{subsection.1.2}}
\newlabel{then}{{1.2}{1}{Then}{subsection.1.2}{}}
\@writefile{toc}{\contentsline {section}{\numberline {2}Another section}{2}{section.2}}
\newlabel{another-section}{{2}{2}{Another section}{section.2}{}}
\@writefile{toc}{\contentsline {subsection}{\numberline {2.1}About space and relativity}{2}{subsection.2.1}}
\newlabel{about-space-and-relativity}{{2.1}{2}{About space and relativity}{subsection.2.1}{}}
\@writefile{toc}{\contentsline {subsubsection}{\numberline {2.1.1}The space}{2}{subsubsection.2.1.1}}
\newlabel{the-space}{{2.1.1}{2}{The space}{subsubsection.2.1.1}{}}
\@writefile{toc}{\contentsline {subsubsection}{\numberline {2.1.2}The relativity}{3}{subsubsection.2.1.2}}
\newlabel{the-relativity}{{2.1.2}{3}{The relativity}{subsubsection.2.1.2}{}}
\@writefile{toc}{\contentsline {subsection}{\numberline {2.2}Both}{5}{subsection.2.2}}
\newlabel{both}{{2.2}{5}{Both}{subsection.2.2}{}}
\@writefile{toc}{\contentsline {section}{\numberline {3}End}{6}{section.3}}
\newlabel{end}{{3}{6}{End}{section.3}{}}
