\babel@toc {french}{}
\contentsline {section}{\numberline {1}The first section}{1}{section.1}
\contentsline {subsection}{\numberline {1.1}The origins}{1}{subsection.1.1}
\contentsline {subsection}{\numberline {1.2}Then}{1}{subsection.1.2}
\contentsline {section}{\numberline {2}Another section}{2}{section.2}
\contentsline {subsection}{\numberline {2.1}About space and relativity}{2}{subsection.2.1}
\contentsline {subsubsection}{\numberline {2.1.1}The space}{2}{subsubsection.2.1.1}
\contentsline {subsubsection}{\numberline {2.1.2}The relativity}{3}{subsubsection.2.1.2}
\contentsline {subsection}{\numberline {2.2}Both}{6}{subsection.2.2}
\contentsline {section}{\numberline {3}End}{6}{section.3}
